…
So, let us summarize the number of total votes and “yes” votes by year.

``` r
library(lubridate)

# Summarize by year
joined_votes %>%
  group_by(year = year(date)) %>%
  summarize(total = n(),
            percent_yes = mean(vote == 1))
```

    ## # A tibble: 73 × 3
    ##     year total percent_yes
    ##    <dbl> <int>       <dbl>
    ##  1  1946  2143       0.573
    ##  2  1947  2039       0.569
    ##  3  1948  3454       0.400
    ##  4  1949  5700       0.425
    ##  5  1950  2911       0.497
    ##  6  1951   402       0.657
    ##  7  1952  4082       0.546
    ##  8  1953  1537       0.632
    ##  9  1954  1788       0.622
    ## 10  1955  2169       0.695
    ## # … with 63 more rows
…
One can also organize the data by country:

``` r
# Summarize by country
by_country2 <- joined_votes %>%
  group_by(country) %>%
  summarize(total = n(),
            percent_yes = mean(vote == 1))
by_country2
```

    ## # A tibble: 200 × 3
    ##    country           total percent_yes
    ##    <chr>             <int>       <dbl>
    ##  1 Afghanistan        5604       0.853
    ##  2 Albania            4237       0.710
    ##  3 Algeria            5289       0.882
    ##  4 Andorra            2323       0.663
    ##  5 Angola             3739       0.919
    ##  6 Antigua & Barbuda  3344       0.916
    ##  7 Argentina          6132       0.791
    ##  8 Armenia            2361       0.758
    ##  9 Australia          6166       0.562
    ## 10 Austria            5709       0.645
    ## # … with 190 more rows
…
We can group the data by year and country to see how positively each
member state voted in a given year.

``` r
# Group by year and country
by_year_country2 <- joined_votes %>%
  group_by(year = year(date), country) %>%
  summarize(total = n(),
            percent_yes = mean(vote == 1))
by_year_country2
```

    ## # A tibble: 10,461 × 4
    ## # Groups:   year [73]
    ##     year country     total percent_yes
    ##    <dbl> <chr>       <int>       <dbl>
    ##  1  1946 Afghanistan    17       0.412
    ##  2  1946 Argentina      43       0.698
    ##  3  1946 Australia      43       0.558
    ##  4  1946 Belarus        43       0.442
    ##  5  1946 Belgium        43       0.605
    ##  6  1946 Bolivia        43       0.698
    ##  7  1946 Brazil         43       0.605
    ##  8  1946 Canada         42       0.643
    ##  9  1946 Chile          43       0.605
    ## 10  1946 Colombia       42       0.310
    ## # … with 10,451 more rows
…
Having examined patterns among all of the UNGA member states, we should
also study individual countries’ attitudes over time. The United Kingdom
is one of the founding members of the Assembly and the U.N. Security
Council, and it featured prominently in debates regarding the
Israeli-Palestinian conflict (having previously governed the region) and
colonialism, among other topics.

``` r
# Only UK data
UK_by_year2 <- by_year_country2 %>%
  filter(country == "United Kingdom")
UK_by_year2
```

    ## # A tibble: 73 × 4
    ## # Groups:   year [73]
    ##     year country        total percent_yes
    ##    <dbl> <chr>          <int>       <dbl>
    ##  1  1946 United Kingdom    43       0.581
    ##  2  1947 United Kingdom    38       0.579
    ##  3  1948 United Kingdom    64       0.312
    ##  4  1949 United Kingdom   104       0.308
    ##  5  1950 United Kingdom    50       0.26 
    ##  6  1951 United Kingdom     7       1    
    ##  7  1952 United Kingdom    70       0.3  
    ##  8  1953 United Kingdom    26       0.231
    ##  9  1954 United Kingdom    31       0.387
    ## 10  1955 United Kingdom    37       0.649
    ## # … with 63 more rows
…
Let us add in another power player, the United States, and a non-Western
country, such as India, and see how the voting patterns compare:

``` r
# Comparing four countries (US, UK, France, India)
countries2 <- c("United States", "United Kingdom",
                "France", "India")
filtered_4_countries2 <- by_year_country2 %>%
  filter(country %in% countries2)
filtered_4_countries2
```

    ## # A tibble: 292 × 4
    ## # Groups:   year [73]
    ##     year country        total percent_yes
    ##    <dbl> <chr>          <int>       <dbl>
    ##  1  1946 France            43       0.558
    ##  2  1946 India             43       0.349
    ##  3  1946 United Kingdom    43       0.581
    ##  4  1946 United States     43       0.605
    ##  5  1947 France            38       0.737
    ##  6  1947 India             37       0.405
    ##  7  1947 United Kingdom    38       0.579
    ##  8  1947 United States     38       0.711
    ##  9  1948 France            64       0.391
    ## 10  1948 India             61       0.443
    ## # … with 282 more rows
…
Finally, we can view the voting records for 6 countries—the U.S., the
U.K., France, Japan, Brazil, and India—over the last seventy years.

``` r
# Comparing 6 countries (US, UK, France, Japan, Brazil, India)
countries3 <- c("United States", "United Kingdom",
                "France", "Japan", "Brazil", "India")
filtered_6_countries2 <- by_year_country2 %>%
  filter(country %in% countries3)
filtered_6_countries2
```

    ## # A tibble: 427 × 4
    ## # Groups:   year [73]
    ##     year country        total percent_yes
    ##    <dbl> <chr>          <int>       <dbl>
    ##  1  1946 Brazil            43       0.605
    ##  2  1946 France            43       0.558
    ##  3  1946 India             43       0.349
    ##  4  1946 United Kingdom    43       0.581
    ##  5  1946 United States     43       0.605
    ##  6  1947 Brazil            38       0.658
    ##  7  1947 France            38       0.737
    ##  8  1947 India             37       0.405
    ##  9  1947 United Kingdom    38       0.579
    ## 10  1947 United States     38       0.711
    ## # … with 417 more rows
…
We can go one step further and run linear regression on each country in
the UNGA, after nesting the data by country.

``` r
library(tidyr)

# Nest all columns besides country
nested2 <- by_year_country2 %>% nest(-country)
nested2
```

    ## # A tibble: 200 × 2
    ##    country     data               
    ##    <chr>       <list>             
    ##  1 Afghanistan <gropd_df [73 × 3]>
    ##  2 Argentina   <gropd_df [73 × 3]>
    ##  3 Australia   <gropd_df [73 × 3]>
    ##  4 Belarus     <gropd_df [73 × 3]>
    ##  5 Belgium     <gropd_df [73 × 3]>
    ##  6 Bolivia     <gropd_df [73 × 3]>
    ##  7 Brazil      <gropd_df [73 × 3]>
    ##  8 Canada      <gropd_df [73 × 3]>
    ##  9 Chile       <gropd_df [73 × 3]>
    ## 10 Colombia    <gropd_df [73 × 3]>
    ## # … with 190 more rows
…
library(purrr)

# Perform a linear regression on each item in the data column, add another
# mutate that applies tidy() to each model, unnest the tidied column
country_coefficients2 <- by_year_country2 %>%
  nest(-country) %>%
  mutate(model = map(data, ~ lm(percent_yes ~ year, data = .)),
         tidied = map(model, tidy)) %>%
  unnest(tidied)
country_coefficients2
```

    ## # A tibble: 400 × 8
    ##    country     data         model  term    estimate std.error statistic  p.value
    ##    <chr>       <list>       <list> <chr>      <dbl>     <dbl>     <dbl>    <dbl>
    ##  1 Afghanistan <gropd_df [… <lm>   (Inter… -1.29e+1  1.16        -11.1  3.16e-17
    ##  2 Afghanistan <gropd_df [… <lm>   year     6.93e-3  0.000585     11.8  1.81e-18
    ##  3 Argentina   <gropd_df [… <lm>   (Inter… -8.70e+0  1.19         -7.33 2.87e-10
    ##  4 Argentina   <gropd_df [… <lm>   year     4.77e-3  0.000598      7.97 1.89e-11
    ##  5 Australia   <gropd_df [… <lm>   (Inter… -3.53e+0  1.38         -2.56 1.25e- 2
    ##  6 Australia   <gropd_df [… <lm>   year     2.06e-3  0.000695      2.96 4.12e- 3
    ##  7 Belarus     <gropd_df [… <lm>   (Inter… -9.10e+0  1.11         -8.20 7.02e-12
    ##  8 Belarus     <gropd_df [… <lm>   year     4.95e-3  0.000560      8.85 4.42e-13
    ##  9 Belgium     <gropd_df [… <lm>   (Inter… -5.53e+0  1.29         -4.30 5.43e- 5
    ## 10 Belgium     <gropd_df [… <lm>   year     3.06e-3  0.000649      4.70 1.22e- 5
    ## # … with 390 more rows

Having both the intercept and slope terms makes this tibble somewhat
unsightly, and so we can filter only for the slope terms (`year`).

``` r
# Filter for only slope terms (year, i.e. not intercept), 
# perform p-value correction, filter for significant values
filtered_countries2 <- country_coefficients2 %>% 
  filter(term=="year") %>%
  mutate(p.adjusted = p.adjust(p.value)) %>%
  filter(p.adjusted < 0.05)
filtered_countries2
```

    ## # A tibble: 101 × 9
    ##    country  data    model term  estimate std.error statistic  p.value p.adjusted
    ##    <chr>    <list>  <lis> <chr>    <dbl>     <dbl>     <dbl>    <dbl>      <dbl>
    ##  1 Afghani… <gropd… <lm>  year   0.00693  0.000585     11.8  1.81e-18   3.59e-16
    ##  2 Argenti… <gropd… <lm>  year   0.00477  0.000598      7.97 1.89e-11   3.29e- 9
    ##  3 Belarus  <gropd… <lm>  year   0.00495  0.000560      8.85 4.42e-13   8.23e-11
    ##  4 Belgium  <gropd… <lm>  year   0.00306  0.000649      4.70 1.22e- 5   1.61e- 3
    ##  5 Bolivia  <gropd… <lm>  year   0.00523  0.000669      7.83 3.50e-11   6.05e- 9
    ##  6 Brazil   <gropd… <lm>  year   0.00505  0.000541      9.33 5.81e-14   1.12e-11
    ##  7 Chile    <gropd… <lm>  year   0.00602  0.000483     12.5  1.45e-19   2.88e-17
    ##  8 Colombia <gropd… <lm>  year   0.00537  0.000629      8.53 1.75e-12   3.22e-10
    ##  9 Costa R… <gropd… <lm>  year   0.00551  0.000568      9.69 1.27e-14   2.46e-12
    ## 10 Cuba     <gropd… <lm>  year   0.00382  0.000516      7.40 2.16e-10   3.63e- 8
    ## # … with 91 more rows

The resulting tibble is a bit easier to read. I additionally adjusted
all *p*-values to ensure accuracy and filtered for only ones that are
significant (&lt; *a*).

Now we can determine which countries’ voting records increased or
decreased in terms of `percent_yes` the most sharply.

``` r
# Sort for the countries which increased most sharply
filtered_countries2 %>% arrange(desc(estimate))
```

    ## # A tibble: 101 × 9
    ##    country   data   model term  estimate std.error statistic  p.value p.adjusted
    ##    <chr>     <list> <lis> <chr>    <dbl>     <dbl>     <dbl>    <dbl>      <dbl>
    ##  1 Tuvalu    <grop… <lm>  year   0.0219   0.00461       4.75 1.86e- 4   2.01e- 2
    ##  2 German D… <grop… <lm>  year   0.0195   0.00309       6.30 1.42e- 5   1.84e- 3
    ##  3 Uzbekist… <grop… <lm>  year   0.0126   0.00256       4.92 5.65e- 5   6.78e- 3
    ##  4 Yemen Ar… <grop… <lm>  year   0.0125   0.00117      10.8  1.63e-13   3.10e-11
    ##  5 South Af… <grop… <lm>  year   0.0104   0.000963     10.8  7.03e-15   1.37e-12
    ##  6 Tajikist… <grop… <lm>  year   0.00919  0.00194       4.74 7.38e- 5   8.49e- 3
    ##  7 Malawi    <grop… <lm>  year   0.00915  0.00103       8.84 5.14e-12   9.31e-10
    ##  8 Kyrgyzst… <grop… <lm>  year   0.00874  0.00115       7.62 7.42e- 8   1.15e- 5
    ##  9 Kazakhst… <grop… <lm>  year   0.00845  0.000960      8.81 2.78e- 9   4.45e- 7
    ## 10 Yemen Pe… <grop… <lm>  year   0.00813  0.00195       4.18 4.25e- 4   4.29e- 2
    ## # … with 91 more rows

``` r
# Sort for the countries which decreased most sharply
filtered_countries2 %>% arrange(estimate)
```

    ## # A tibble: 101 × 9
    ##    country   data   model term  estimate std.error statistic  p.value p.adjusted
    ##    <chr>     <list> <lis> <chr>    <dbl>     <dbl>     <dbl>    <dbl>      <dbl>
    ##  1 Bosnia &… <grop… <lm>  year  -0.0104   0.00152      -6.83 4.55e- 7   6.74e- 5
    ##  2 Vanuatu   <grop… <lm>  year  -0.00755  0.00191      -3.96 3.40e- 4   3.50e- 2
    ##  3 South Ko… <grop… <lm>  year  -0.00678  0.000787     -8.61 3.16e- 9   5.03e- 7
    ##  4 North Ko… <grop… <lm>  year  -0.00659  0.00143      -4.59 9.04e- 5   1.02e- 2
    ##  5 Israel    <grop… <lm>  year  -0.00621  0.000678     -9.15 1.80e-13   3.40e-11
    ##  6 United S… <grop… <lm>  year  -0.00550  0.000711     -7.73 5.33e-11   9.11e- 9
    ##  7 Zimbabwe  <grop… <lm>  year  -0.00446  0.00110      -4.04 2.50e- 4   2.65e- 2
    ##  8 Trinidad… <grop… <lm>  year   0.00245  0.000635      3.86 3.01e- 4   3.16e- 2
    ##  9 Sweden    <grop… <lm>  year   0.00253  0.000572      4.43 3.36e- 5   4.20e- 3
    ## 10 Luxembou… <grop… <lm>  year   0.00257  0.000679      3.79 3.18e- 4   3.31e- 2
    ## # … with 91 more rows
…
We can join together our previous working tibble with these labels so
that we can better discern how countries voted on particular issues.

``` r
# Join together joined_votes, un_roll_call_issues based on the 'rcid' column
votes_combined <- joined_votes %>%
  inner_join(un_roll_call_issues, by = "rcid")
votes_combined
```

    ## # A tibble: 857,878 × 14
    ##     rcid country country_code  vote session importantvote date       unres amend
    ##    <dbl> <chr>   <chr>        <dbl>   <dbl>         <int> <date>     <chr> <int>
    ##  1     6 United… US               0       1             0 1946-01-04 R/1/…     0
    ##  2     6 Canada  CA               0       1             0 1946-01-04 R/1/…     0
    ##  3     6 Cuba    CU               1       1             0 1946-01-04 R/1/…     0
    ##  4     6 Domini… DO               2       1             0 1946-01-04 R/1/…     0
    ##  5     6 Mexico  MX               1       1             0 1946-01-04 R/1/…     0
    ##  6     6 Guatem… GT               0       1             0 1946-01-04 R/1/…     0
    ##  7     6 Hondur… HN               1       1             0 1946-01-04 R/1/…     0
    ##  8     6 El Sal… SV               2       1             0 1946-01-04 R/1/…     0
    ##  9     6 Nicara… NI               1       1             0 1946-01-04 R/1/…     0
    ## 10     6 Panama  PA               2       1             0 1946-01-04 R/1/…     0
    ## # … with 857,868 more rows, and 5 more variables: para <int>, short <chr>,
    ## #   descr <chr>, short_name <chr>, issue <fct>
…
``` r
# Clean up votes_combined: create variable 'year'; drop variables 'importantvote', 
# 'country_code', 'amend', 'para', 'short', 'descr', 'date'; 
# rename variable 'short_name' as 'issue_abrv'; recode 'Palestinian conflict'
# as 'Israeli-Palestinian conflict'
clean_votes <- votes_combined %>% 
  mutate(year = session + 1945) %>%
  select(c(rcid, session, year, country, vote, unres, 
           issue_abrv = short_name, issue)) %>%
  mutate(issue = recode(issue, "Palestinian conflict" = "Israeli-Palestinian conflict"))
clean_votes
```

    ## # A tibble: 857,878 × 8
    ##     rcid session  year country             vote unres   issue_abrv issue       
    ##    <dbl>   <dbl> <dbl> <chr>              <dbl> <chr>   <chr>      <fct>       
    ##  1     6       1  1946 United States          0 R/1/107 hr         Human rights
    ##  2     6       1  1946 Canada                 0 R/1/107 hr         Human rights
    ##  3     6       1  1946 Cuba                   1 R/1/107 hr         Human rights
    ##  4     6       1  1946 Dominican Republic     2 R/1/107 hr         Human rights
    ##  5     6       1  1946 Mexico                 1 R/1/107 hr         Human rights
    ##  6     6       1  1946 Guatemala              0 R/1/107 hr         Human rights
    ##  7     6       1  1946 Honduras               1 R/1/107 hr         Human rights
    ##  8     6       1  1946 El Salvador            2 R/1/107 hr         Human rights
    ##  9     6       1  1946 Nicaragua              1 R/1/107 hr         Human rights
    ## 10     6       1  1946 Panama                 2 R/1/107 hr         Human rights
    ## # … with 857,868 more rows

One of the added columns is `issue_abrv`, which contains an abbreviation
of the topic at hand for a given resolution. For instance, we can filter
for “nu” to show only votes that pertained to nuclear weapons and
nuclear material.

``` r
# Filter for votes related to nuclear weapons and nuclear material (nu)
clean_votes %>% filter(issue_abrv=="nu")
```

    ## # A tibble: 133,635 × 8
    ##     rcid session  year country             vote unres    issue_abrv issue       
    ##    <dbl>   <dbl> <dbl> <chr>              <dbl> <chr>    <chr>      <fct>       
    ##  1    94       3  1948 United States          0 R/3/564A nu         Nuclear wea…
    ##  2    94       3  1948 Canada                 0 R/3/564A nu         Nuclear wea…
    ##  3    94       3  1948 Cuba                   0 R/3/564A nu         Nuclear wea…
    ##  4    94       3  1948 Haiti                  0 R/3/564A nu         Nuclear wea…
    ##  5    94       3  1948 Dominican Republic     0 R/3/564A nu         Nuclear wea…
    ##  6    94       3  1948 Mexico                 0 R/3/564A nu         Nuclear wea…
    ##  7    94       3  1948 Honduras               0 R/3/564A nu         Nuclear wea…
    ##  8    94       3  1948 El Salvador            0 R/3/564A nu         Nuclear wea…
    ##  9    94       3  1948 Nicaragua              0 R/3/564A nu         Nuclear wea…
    ## 10    94       3  1948 Panama                 0 R/3/564A nu         Nuclear wea…
    ## # … with 133,625 more rows
…
The line appears fairly chaotic, although votes after 1975 were
generally less favorable than during the previous decades.

We can group each country’s votes by both year and issue.

``` r
# Group each country's votes by year, issue
by_country_year_issue <- clean_votes %>%
  group_by(country, year, issue) %>%
  summarize(total = n(), percent_yes = mean(vote == 1)) %>%
  ungroup()
by_country_year_issue
```

    ## # A tibble: 59,683 × 5
    ##    country      year issue                        total percent_yes
    ##    <chr>       <dbl> <fct>                        <int>       <dbl>
    ##  1 Afghanistan  1946 Colonialism                      5       0.2  
    ##  2 Afghanistan  1946 Economic development             6       0.333
    ##  3 Afghanistan  1946 Human rights                     1       0    
    ##  4 Afghanistan  1947 Colonialism                      8       0.5  
    ##  5 Afghanistan  1947 Economic development             2       0.5  
    ##  6 Afghanistan  1947 Israeli-Palestinian conflict     7       0.143
    ##  7 Afghanistan  1948 Colonialism                     13       0.923
    ##  8 Afghanistan  1948 Arms control and disarmament     9       0    
    ##  9 Afghanistan  1948 Economic development             9       0.222
    ## 10 Afghanistan  1948 Human rights                    10       0.1  
    ## # … with 59,673 more rows
…
# Filter to only include slope terms, adjust p-values, filter for significant values
country_issue_filtered <- country_issue_coefficients %>%
  filter(term=="year") %>%
  mutate(p.adjusted = p.adjust(p.value)) %>%
  filter(p.adjusted < 0.05)
country_issue_filtered
```

    ## # A tibble: 254 × 10
    ##    country     issue     data   model term  estimate std.error statistic p.value
    ##    <chr>       <fct>     <list> <lis> <chr>    <dbl>     <dbl>     <dbl>   <dbl>
    ##  1 Afghanistan Colonial… <tibb… <lm>  year   0.00572  0.000824      6.94 1.48e-9
    ##  2 Afghanistan Economic… <tibb… <lm>  year   0.00775  0.00113       6.87 2.12e-9
    ##  3 Afghanistan Israeli-… <tibb… <lm>  year   0.00500  0.00108       4.65 1.85e-5
    ##  4 Afghanistan Arms con… <tibb… <lm>  year   0.00634  0.00124       5.12 2.90e-6
    ##  5 Afghanistan Nuclear … <tibb… <lm>  year   0.00720  0.00130       5.55 6.74e-7
    ##  6 Albania     Human ri… <tibb… <lm>  year  -0.00797  0.00175      -4.54 2.93e-5
    ##  7 Algeria     Nuclear … <tibb… <lm>  year   0.00694  0.00120       5.78 3.69e-7
    ##  8 Andorra     Human ri… <tibb… <lm>  year  -0.00893  0.00171      -5.23 2.33e-5
    ##  9 Angola      Nuclear … <tibb… <lm>  year   0.00406  0.000844      4.81 2.55e-5
    ## 10 Argentina   Economic… <tibb… <lm>  year   0.00601  0.00130       4.61 1.77e-5
    ## # … with 244 more rows, and 1 more variable: p.adjusted <dbl>
…
